<?xml version="1.0" encoding="UTF-8" standalone="no"?>
<svg width="90px" height="90px" viewBox="0 0 90 90" version="1.1" xmlns="http://www.w3.org/2000/svg" xmlns:xlink="http://www.w3.org/1999/xlink">
    <!-- Generator: Sketch 50.2 (55047) - http://www.bohemiancoding.com/sketch -->
    <title>Artboard</title>
    <desc>Created with Sketch.</desc>
    <defs></defs>
    <g id="Artboard" stroke="none" stroke-width="1" fill="none" fill-rule="evenodd">
        <g id="icn_chair" transform="translate(3.000000, 5.000000)" fill="#000000">
            <path d="M40.2512822,70.7127866 L44.7486503,70.7127866 L44.7486503,67.2846073 L40.2512822,67.2846073 L40.2512822,70.7127866 Z M38,73 L47,73 L47,65 L38,65 L38,73 Z" id="Fill-1"></path>
            <path d="M30.8324,53.3987905 C28.90467,53.3987905 27.3324,55.0158628 27.3324,56.9985241 C27.3324,58.9839932 28.90467,60.5982577 30.8324,60.5982577 L54.1676,60.5982577 C56.09533,60.5982577 57.6676,58.9839932 57.6676,56.9985241 C57.6676,55.0158628 56.09533,53.3987905 54.1676,53.3987905 L30.8324,53.3987905 Z M54.1676,63 L30.8324,63 C27.61674,63 25,60.3086232 25,56.9985961 C25,53.6913048 27.61681,51 30.8324,51 L54.1676,51 C57.38326,51 60,53.6913768 60,56.9985961 C60,60.3086952 57.38319,63 54.1676,63 Z" id="Fill-2"></path>
            <path d="M41.3324,64.6676 L43.66753,64.6676 L43.66753,62.3352 L41.3324,62.3352 L41.3324,64.6676 Z M39,67 L46,67 L46,60 L39,60 L39,67 Z" id="Fill-3"></path>
            <path d="M16.6648467,43.2493756 C15.3797231,43.2493756 14.3324583,44.2593365 14.3324583,45.4986836 C14.3324583,46.7406635 15.3797231,47.7506244 16.6648467,47.7506244 L21.3324233,47.7506244 C22.6202769,47.7506244 23.6648117,46.7406635 23.6648117,45.4986836 C23.6648117,44.2593365 22.6202769,43.2493756 21.3324233,43.2493756 L16.6648467,43.2493756 Z M21.3324233,50 L16.6648467,50 C14.0917995,50 12,47.9827109 12,45.4986836 C12,43.0172891 14.0917995,41 16.6648467,41 L21.3324233,41 C23.9054705,41 26,43.0172891 26,45.4986836 C26,47.9827109 23.9054705,50 21.3324233,50 Z" id="Fill-4"></path>
            <path d="M25.8766286,57 C21.5335469,57 18,53.4664531 18,49.1233714 C18,48.5010448 18.5036573,48 19.1260042,48 C19.7456912,48 20.2493756,48.5010246 20.2493756,49.1233714 C20.2493756,52.227106 22.7729615,54.7506244 25.8766286,54.7506244 C26.4963157,54.7506244 27,55.251649 27,55.8739958 C27,56.4963427 26.4963427,57 25.8766286,57" id="Fill-5"></path>
            <path d="M36.3742874,22.6933727 L50.6257126,22.6933727 L50.6257126,19.2320473 C50.6257126,15.4137899 47.430258,12.3093963 43.5,12.3093963 C39.569742,12.3093963 36.3742874,15.4137899 36.3742874,19.2320473 L36.3742874,22.6933727 Z M53,25 L34,25 L34,19.2320473 C34,14.1427912 38.2615324,10 43.5,10 C48.7384676,10 53,14.1427912 53,19.2320473 L53,25 Z" id="Fill-6"></path>
            <path d="M43,13 C42.4473141,13 42,12.4405444 42,11.7492501 L42,9.25074985 C42,8.5594781 42.4472962,8 43,8 C43.5527038,8 44,8.55945561 44,9.25074985 L44,11.7492501 C44,12.4405219 43.5527038,13 43,13" id="Fill-7"></path>
            <path d="M63.6675767,43.2493756 C62.3797231,43.2493756 61.3351883,44.2593365 61.3351883,45.4986836 C61.3351883,46.7406635 62.3797231,47.7506244 63.6675767,47.7506244 L68.3351533,47.7506244 C69.6202769,47.7506244 70.6675417,46.7406635 70.6675417,45.4986836 C70.6675417,44.2593365 69.6202769,43.2493756 68.3351533,43.2493756 L63.6675767,43.2493756 Z M68.3351533,50 L63.6675767,50 C61.0945295,50 59,47.9827109 59,45.4986836 C59,43.0172891 61.0945295,41 63.6675767,41 L68.3351533,41 C70.9082005,41 73,43.0172891 73,45.4986836 C73,47.9827109 70.9082005,50 68.3351533,50 Z" id="Fill-8"></path>
            <path d="M59.1233714,57 C58.5036843,57 58,56.4963427 58,55.8739958 C58,55.251649 58.5036573,54.7506244 59.1233714,54.7506244 C62.227106,54.7506244 64.7506244,52.2270385 64.7506244,49.1233714 C64.7506244,48.5010448 65.2542818,48 65.8739958,48 C66.4963224,48 67,48.5010246 67,49.1233714 C67,53.4664531 63.4664531,57 59.1233714,57" id="Fill-9"></path>
            <path d="M37.429556,76.7154604 L48.5676324,76.7154604 C48.0586731,74.7442571 46.2665867,73.2872808 44.1423967,73.2872808 L41.8574661,73.2872808 C39.7305332,73.2872808 37.9385222,74.7442571 37.429556,76.7154604 Z M51,79 L35,79 L35,77.8563586 C35,74.0746651 38.0751929,71 41.8575347,71 L44.1424653,71 C47.9221327,71 51,74.0746651 51,77.8563586 L51,79 Z" id="Fill-10"></path>
            <path d="M30.3862332,46.6676 L56.6136238,46.6676 L56.6136238,37.3324 C56.6136238,33.47148 53.4057504,30.33513 49.4630077,30.33513 L37.5368493,30.33513 C33.5941065,30.33513 30.3862332,33.47148 30.3862332,37.3324 L30.3862332,46.6676 Z M59,49 L28,49 L28,37.3324 C28,32.18628 32.2780944,28 37.5369208,28 L49.4630792,28 C54.7219771,28 59,32.18635 59,37.3324 L59,49 Z" id="Fill-11"></path>
            <path d="M43,53 C42.4473141,53 42,52.4655441 42,51.8016706 L42,48.2011378 C42,47.5372859 42.4472962,47 43,47 C43.5527038,47 44,47.5372643 44,48.2011378 L44,51.8016706 C44,52.4655225 43.5527038,53 43,53" id="Fill-12"></path>
            <path d="M43,30 C42.4473141,30 42,29.4777422 42,28.8324117 L42,24.1648584 C42,23.5195488 42.4472962,23 43,23 C43.5527038,23 44,23.5195278 44,24.1648584 L44,28.8324117 C44,29.4777212 43.5527038,30 43,30" id="Fill-13"></path>
            <path d="M58.8231814,79 L28.1768186,79 C27.5276484,79 27,78.5521803 27,77.9988296 C27,77.4454788 27.5276201,77 28.1768186,77 L58.8231814,77 C59.4723516,77 60,77.4454788 60,77.9988296 C60,78.5521804 59.4723799,79 58.8231814,79" id="Fill-14"></path>
            <path d="M77.5553059,70.9989147 L78.554583,69.9999835 C78.9977422,69.5569777 78.9977422,68.8881328 78.554583,68.4451714 C78.1114238,68.0021689 77.4423473,68.0021689 76.9992326,68.4451714 L75.9999555,69.4441026 L74.8877198,68.3322519 C74.4445606,67.8892494 73.7754841,67.8892494 73.3323694,68.3322519 C72.8892102,68.7752577 72.8892102,69.4441026 73.3323694,69.8870639 L74.4446051,70.9989147 L73.4453281,71.9978459 C73.0021689,72.4408517 73.0021689,73.1096966 73.4453281,73.552658 C73.6669077,73.7741609 74.0014459,73.8870804 74.2230255,73.8870804 C74.4446051,73.8870804 74.7791434,73.7741609 75.000723,73.552658 L76,72.5537268 L77.1122357,73.6655775 C77.3338153,73.8870804 77.6683536,74 77.8899332,74 C78.1115128,74 78.446051,73.8870804 78.6676306,73.6655775 C79.1107898,73.2225717 79.1107898,72.5537268 78.6676306,72.1107654 L77.5553059,70.9989147 Z" id="Fill-4-Copy"></path>
            <path d="M10.5553059,10.9989147 L11.554583,9.99998351 C11.9977422,9.5569777 11.9977422,8.88813276 11.554583,8.44517142 C11.1114238,8.00216894 10.4423473,8.00216894 9.99923256,8.44517142 L8.99995551,9.44410261 L7.88771981,8.33225186 C7.44456061,7.88924938 6.7754841,7.88924938 6.3323694,8.33225186 C5.8892102,8.77525767 5.8892102,9.44410261 6.3323694,9.88706395 L7.4446051,10.9989147 L6.44532805,11.9978459 C6.00216886,12.4408517 6.00216886,13.1096966 6.44532805,13.552658 C6.66690765,13.7741609 7.00144591,13.8870804 7.2230255,13.8870804 C7.4446051,13.8870804 7.77914336,13.7741609 8.00072295,13.552658 L9,12.5537268 L10.1122357,13.6655775 C10.3338153,13.8870804 10.6683536,14 10.8899332,14 C11.1115128,14 11.446051,13.8870804 11.6676306,13.6655775 C12.1107898,13.2225717 12.1107898,12.5537268 11.6676306,12.1107654 L10.5553059,10.9989147 Z" id="Fill-4-Copy-2"></path>
            <path d="M8.90597649,63.4701056 L7.59402351,63.4701056 L7.59402351,62.029896 C7.59402351,61.4103517 7.15812078,61 6.5,61 C5.84187922,61 5.40597649,61.4103517 5.40597649,62.029896 L5.40597649,63.4701056 L4.09402351,63.4701056 C3.43590273,63.4701056 3,63.8804573 3,64.5000015 C3,65.1195458 3.43590273,65.5298975 4.09402351,65.5298975 L5.40597649,65.5298975 L5.40597649,66.970104 C5.40597649,67.5896483 5.84187922,68 6.5,68 C7.15812078,68 7.59402351,67.5896483 7.59402351,66.970104 L7.59402351,65.5298975 L8.90597649,65.5298975 C9.56409727,65.5298975 10,65.1195458 10,64.5000015 C10,63.8844739 9.56409727,63.4701056 8.90597649,63.4701056 Z" id="Fill-9-Copy"></path>
            <path d="M3,36.5 C3,38.5 0,38.5 0,36.5 C0,34.5 3,34.5 3,36.5" id="Fill-12-Copy"></path>
            <path d="M72.5,23 C70.6016,23 69,24.6016 69,26.5 C69,28.3984 70.6016,30 72.5,30 C74.3984,30 76,28.3984 76,26.5 C76,24.6016 74.5,23 72.5,23 Z M72.5,28 C71.69922,28 71,27.30078 71,26.5 C71,25.69922 71.69922,25 72.5,25 C73.30078,25 74,25.69922 74,26.5 C74,27.30078 73.39844,28 72.5,28 Z" id="Fill-14-Copy-2"></path>
            <path d="M18,79.5 C18,81.5 15,81.5 15,79.5 C15,77.5 18,77.5 18,79.5" id="Fill-25-Copy"></path>
            <path d="M61.0853456,8 C61.4124468,8 61.6291005,7.88959934 61.8457541,7.6730375 L64.6750195,4.84497164 C65.1083268,4.41184796 65.1083268,3.75792295 64.6750195,3.32484276 C64.2417121,2.89171908 63.5875097,2.89171908 63.1542459,3.32484276 L60.3249805,6.15290862 C59.8916732,6.58603229 59.8916732,7.2399573 60.3249805,7.6730375 C60.5416342,7.89383883 60.7582879,8 61.0853891,8 L61.0853456,8 Z" id="Fill-26-Copy"></path>
            <path d="M82.1124918,50.6656521 C82.3340414,50.8871056 82.6685342,51 82.8900838,51 C83.1116333,51 83.4461262,50.8871056 83.6676757,50.6656521 C84.1107748,50.2227452 84.1107748,49.5540495 83.6676757,49.1111869 L80.8874637,46.3321802 C80.4443646,45.8892733 79.7753789,45.8892733 79.3323243,46.3321802 C78.8892252,46.7750872 78.8892252,47.4437829 79.3323243,47.8866454 L82.1124918,50.6656521 Z" id="Fill-27-Copy-3"></path>
            <path d="M27.3562611,0.291782365 L26.289405,1.35697583 C25.9035317,1.74224787 25.9035317,2.32392705 26.289405,2.70916041 C26.4823417,2.90179643 26.7736353,3 26.966572,3 C27.1595087,3 27.4508022,2.90179643 27.6437389,2.70916041 L28.710595,1.64396695 C29.0964683,1.25869491 29.0964683,0.677015731 28.710595,0.291782365 C28.3247216,-0.0972607884 27.7459212,-0.0972607884 27.3562998,0.291782365 L27.3562611,0.291782365 Z" id="Fill-29-Copy"></path>
            <path d="M19.8083481,26.3890432 L18.3858734,27.8093011 C17.8713755,28.3229972 17.8713755,29.0985694 18.3858734,29.6122139 C18.6431223,29.8690619 19.0315137,30 19.2887626,30 C19.5460116,30 19.9344029,29.8690619 20.1916519,29.6122139 L21.6141266,28.1919559 C22.1286245,27.6782599 22.1286245,26.9026876 21.6141266,26.3890432 C21.0996288,25.8703189 20.3278949,25.8703189 19.8083998,26.3890432 L19.8083481,26.3890432 Z" id="Fill-29-Copy-2"></path>
        </g>
    </g>
</svg>